<svg width="32" height="32" viewBox="0 0 32 32" fill="none" xmlns="http://www.w3.org/2000/svg">
<path d="M21.97 14C21.97 9.58172 18.395 6 13.985 6C9.575 6 6 9.58172 6 14C6 18.4183 9.575 22 13.985 22C18.395 22 21.97 18.4183 21.97 14Z" stroke="#0095DF"/>
<path d="M19.817 19.9993L26.5414 26.7363" stroke="#0095DF"/>
</svg>
