<svg width="20" height="18" viewBox="0 0 20 18" fill="none" xmlns="http://www.w3.org/2000/svg">
<path d="M5 14.5H4.86151L4.74275 14.5713L0.5 17.1169V1C0.5 0.723858 0.723858 0.5 1 0.5H19C19.2761 0.5 19.5 0.723858 19.5 1V14C19.5 14.2761 19.2761 14.5 19 14.5H5Z" stroke="#828C90"/>
</svg>
